<svg width="14" height="14" viewBox="0 0 14 14" fill="none" xmlns="http://www.w3.org/2000/svg">
<path d="M5.83334 2.91669L9.8952 6.97854L5.83334 11.0404" stroke="#A2A2A7" stroke-width="2" stroke-linecap="round" stroke-linejoin="round"/>
</svg>
